[
  {
    "id": "com.projectbox.Phrasebook.non.removeads",
    "title": "Remove ads",
    "icon": "ic_cart",
    "unlock": ["ads"]
  },
  {
    "id": "com.projectbox.Phrasebook.non.unlockall",
    "title": "Unlock all",
    "icon": "ic_cart",
    "unlock": ["Diner", "Transportation", "Emergency"]
  }
]
